[gd_scene load_steps=5 format=2]

[ext_resource path="res://Fonts/Raleway/Raleway-SemiBold.ttf" type="DynamicFontData" id=1]
[ext_resource path="res://HUD.gd" type="Script" id=2]

[sub_resource type="DynamicFont" id=1]
size = 22
font_data = ExtResource( 1 )

[sub_resource type="DynamicFont" id=2]
font_data = ExtResource( 1 )

[node name="HUD" type="CanvasLayer"]
script = ExtResource( 2 )

[node name="Score" type="Label" parent="."]
anchor_right = 1.0
margin_top = 150.0
margin_bottom = 164.0
custom_fonts/font = SubResource( 1 )
text = "Your score: 0"
align = 1
valign = 1
__meta__ = {
"_edit_use_anchors_": false
}

[node name="Message" type="Label" parent="."]
anchor_top = 0.5
anchor_right = 1.0
anchor_bottom = 0.5
margin_top = -12.0
margin_bottom = 54.0
custom_fonts/font = SubResource( 2 )
text = "Eat the green food and avoid the red ants.
Press up to increase spead an down to slow down.
Use left and right to steer."
align = 1
autowrap = true
__meta__ = {
"_edit_use_anchors_": false
}

[node name="StartButton" type="Button" parent="."]
anchor_left = 0.5
anchor_top = 1.0
anchor_right = 0.5
anchor_bottom = 1.0
margin_left = -200.0
margin_top = -200.0
margin_right = 200.0
margin_bottom = -100.0
text = "Start Game"
__meta__ = {
"_edit_use_anchors_": false
}
[connection signal="pressed" from="StartButton" to="." method="_on_StartButton_pressed"]
