[gd_resource type="TileSet" load_steps=2 format=2]

[ext_resource path="res://Assets/terrain_atlas.png" type="Texture" id=1]

[resource]
0/name = "grasss.png 0"
0/texture = ExtResource( 1 )
0/tex_offset = Vector2( 0, 0 )
0/modulate = Color( 1, 1, 1, 1 )
0/region = Rect2( 672, 64, 96, 192 )
0/tile_mode = 1
0/autotile/bitmask_mode = 0
0/autotile/bitmask_flags = [ Vector2( 0, 0 ), 256, Vector2( 0, 1 ), 260, Vector2( 0, 2 ), 4, Vector2( 0, 3 ), 325, Vector2( 0, 4 ), 69, Vector2( 0, 5 ), 321, Vector2( 1, 0 ), 320, Vector2( 1, 1 ), 325, Vector2( 1, 2 ), 5, Vector2( 1, 3 ), 325, Vector2( 1, 4 ), 261, Vector2( 1, 5 ), 324, Vector2( 2, 0 ), 64, Vector2( 2, 1 ), 65, Vector2( 2, 2 ), 1, Vector2( 2, 3 ), 325, Vector2( 2, 4 ), 261, Vector2( 2, 5 ), 324 ]
0/autotile/icon_coordinate = Vector2( 0, 0 )
0/autotile/tile_size = Vector2( 32, 32 )
0/autotile/spacing = 0
0/autotile/occluder_map = [  ]
0/autotile/navpoly_map = [  ]
0/autotile/priority_map = [  ]
0/autotile/z_index_map = [  ]
0/occluder_offset = Vector2( 0, 0 )
0/navigation_offset = Vector2( 0, 0 )
0/shape_offset = Vector2( 0, 0 )
0/shape_transform = Transform2D( 1, 0, 0, 1, 0, 0 )
0/shape_one_way = false
0/shape_one_way_margin = 0.0
0/shapes = [  ]
0/z_index = 0
